<?xml version="1.0" standalone="no"?>
<!DOCTYPE svg PUBLIC "-//W3C//DTD SVG 20010904//EN"
 "http://www.w3.org/TR/2001/REC-SVG-20010904/DTD/svg10.dtd">
<svg version="1.0" xmlns="http://www.w3.org/2000/svg"
 width="1000.000000pt" height="1000.000000pt" viewBox="0 0 1000.000000 1000.000000"
 preserveAspectRatio="xMidYMid meet">
<metadata>
Created by potrace 1.11, written by Peter Selinger 2001-2013
</metadata>
<g transform="translate(0.000000,1000.000000) scale(0.100000,-0.100000)"
fill="#000000" stroke="none">
<path d="M0 5000 l0 -5000 5000 0 5000 0 0 5000 0 5000 -5000 0 -5000 0 0
-5000z m5094 1998 c3 -7 15 -26 26 -43 25 -37 20 -27 68 -175 48 -149 77 -216
99 -228 8 -5 29 -40 45 -78 16 -38 35 -76 42 -84 18 -22 86 -186 86 -207 0
-10 14 -54 30 -98 17 -44 32 -84 33 -90 1 -5 10 -16 20 -23 9 -7 17 -26 17
-43 0 -47 18 -33 25 20 13 97 47 88 80 -21 9 -32 20 -58 24 -58 4 0 24 20 44
45 21 25 45 45 52 45 25 0 20 -46 -35 -290 -7 -31 -7 -62 0 -100 27 -141 21
-523 -9 -553 -7 -7 -36 -7 -89 2 -380 58 -896 66 -1237 20 -122 -16 -124 -17
-120 -47 2 -15 4 -154 4 -309 l1 -283 43 -1 c31 -1 20 -4 -44 -14 -48 -8 -114
-21 -147 -29 -33 -9 -63 -16 -66 -16 -3 0 -5 143 -4 318 l3 317 55 17 c30 9
67 19 81 22 l27 6 -24 58 c-60 149 -84 281 -90 487 -3 113 -11 202 -20 238
-12 45 -13 61 -4 73 7 7 16 11 21 8 5 -3 10 -2 10 3 4 24 8 59 18 169 12 125
22 193 64 429 27 147 34 175 47 175 10 0 27 -46 34 -95 19 -123 96 -435 108
-435 5 0 11 8 14 18 3 9 20 49 39 87 18 39 43 93 55 120 46 107 75 170 80 175
3 3 11 18 18 34 7 16 27 47 45 70 27 34 82 135 111 206 28 67 148 205 171 196
7 -2 26 -1 42 3 30 9 95 -16 107 -41z m-276 -2575 c-32 -2 -86 -2 -120 0 -35
2 -9 3 57 3 66 0 94 -1 63 -3z m390 0 c-26 -2 -71 -2 -100 0 -29 2 -8 3 47 3
55 0 79 -1 53 -3z m-625 -10 c-13 -2 -35 -2 -50 0 -16 2 -5 4 22 4 28 0 40 -2
28 -4z m790 0 c-13 -2 -35 -2 -50 0 -16 2 -5 4 22 4 28 0 40 -2 28 -4z m-905
-10 c-10 -2 -28 -2 -40 0 -13 2 -5 4 17 4 22 1 32 -1 23 -4z m1010 0 c-10 -2
-28 -2 -40 0 -13 2 -5 4 17 4 22 1 32 -1 23 -4z m75 -10 c-7 -2 -19 -2 -25 0
-7 3 -2 5 12 5 14 0 19 -2 13 -5z m-1173 -390 c18 -20 44 -62 57 -92 13 -31
28 -65 33 -76 5 -11 21 -55 37 -98 l28 -78 92 7 93 7 1 -29 c0 -16 0 -55 -1
-88 l-2 -58 121 3 c66 2 113 1 103 -3 -9 -4 -46 -7 -82 -7 -87 -1 -287 -27
-382 -50 -62 -15 -80 -16 -88 -6 -6 7 -10 56 -9 111 0 65 -6 137 -20 208 -26
133 -39 286 -24 286 6 0 26 -17 43 -37z m1115 -377 l50 -15 0 -96 0 -96 -25 7
c-14 3 -74 17 -135 30 -60 12 -96 23 -80 23 l30 1 -4 86 -3 87 58 -6 c33 -3
82 -12 109 -21z m-387 -133 c-21 -2 -55 -2 -75 0 -21 2 -4 4 37 4 41 0 58 -2
38 -4z m115 -10 c-7 -2 -21 -2 -30 0 -10 3 -4 5 12 5 17 0 24 -2 18 -5z m-623
-63 c0 -10 7 -45 15 -77 34 -130 104 -444 129 -583 70 -378 96 -555 147 -965
36 -296 57 -591 41 -565 -39 60 -127 415 -267 1075 -19 88 -79 369 -134 625
-55 256 -97 468 -92 473 6 6 111 31 154 36 4 1 7 -8 7 -19z m-969 -135 c38
-24 54 -50 25 -39 -8 3 -17 1 -20 -4 -3 -6 -22 -8 -41 -5 l-35 5 30 -30 c29
-29 38 -66 22 -87 -4 -6 -24 -16 -45 -23 -31 -11 -47 -11 -87 -1 -28 7 -50 18
-50 23 0 6 -3 21 -6 33 -5 17 2 30 25 52 l31 29 -34 0 c-19 0 -40 3 -47 8 -7
4 -10 3 -5 -4 4 -6 -1 -10 -13 -9 -39 3 16 58 78 78 46 15 130 2 172 -26z
m2837 20 c39 -17 82 -52 82 -68 0 -5 -7 -4 -15 3 -9 7 -15 8 -15 2 0 -10 -31
-8 -90 4 -23 5 -23 4 5 -14 44 -28 57 -47 53 -83 -3 -27 -9 -34 -43 -46 -33
-12 -49 -12 -93 -2 l-53 12 3 46 c3 43 6 48 44 67 l40 20 -73 -2 c-73 -1 -74
-1 -56 19 46 51 142 70 211 42z m-2925 -302 c-13 -2 -33 -2 -45 0 -13 2 -3 4
22 4 25 0 35 -2 23 -4z m2840 0 c-7 -2 -19 -2 -25 0 -7 3 -2 5 12 5 14 0 19
-2 13 -5z m44 1 c-3 -3 -12 -4 -19 -1 -8 3 -5 6 6 6 11 1 17 -2 13 -5z"/>
<path d="M3503 3243 c9 -2 25 -2 35 0 9 3 1 5 -18 5 -19 0 -27 -2 -17 -5z"/>
</g>
</svg>
